Trump Tweet Project
…
According to diagram above, when it comes to words associated with negative sentiments, Trump used his Android phone more often.

# incomplete
#get number of Android negative word/total negative word per day 
tweet_new %>%
  mutate(text = str_replace_all(text, "https://t.co/[A-Za-z0-9]", " ")) %>%
  unnest_tokens(word, text) %>% 
  filter(!word %in% stop_words$word & !word %in% c("rt","cruz", "amp", "")) %>%
  inner_join(sentiments, by = "word") %>%
  filter(sentiment == "negative") %>%
  group_by(date(created_at)) %>%
  mutate(sth = n())

## # A tibble: 2,865 x 10
## # Groups:   date(created_at) [377]
##    source created_at          retweet_count favorite_count is_retweet    id_str
##    <chr>  <dttm>                      <int>          <int> <lgl>          <dbl>
##  1 Andro~ 2017-03-25 14:37:52         22518         104321 FALSE      3.87e-252
##  2 Andro~ 2017-03-25 14:37:52         22518         104321 FALSE      3.87e-252
##  3 iPhone 2017-03-24 12:23:00         13364          61991 FALSE      3.67e-252
##  4 iPhone 2017-03-24 12:14:32         12566          68241 FALSE      3.67e-252
##  5 iPhone 2017-03-24 12:14:32         12566          68241 FALSE      3.67e-252
##  6 iPhone 2017-03-23 15:16:24         23258         117021 FALSE      3.52e-252
##  7 iPhone 2017-03-23 15:16:24         23258         117021 FALSE      3.52e-252
##  8 iPhone 2017-03-23 15:16:24         23258         117021 FALSE      3.52e-252
##  9 iPhone 2017-03-23 12:18:33         21324          94648 FALSE      3.50e-252
## 10 iPhone 2017-03-23 12:18:33         21324          94648 FALSE      3.50e-252
## # ... with 2,855 more rows, and 4 more variables: word <chr>, sentiment <chr>,
## #   `date(created_at)` <date>, sth <int>
…
